﻿{
  "groupId": "hu.raiffeisen",
  "artifactId": "demo-jwt",
  "modelPackage": "hu.raiffeisen.demojwt.rest.model",
  "apiPackage": "hu.raiffeisen.demojwt.rest.api",
  "sourceFolder": "src/gen/java",
  "serializableModel": "true",
  "implFolder": "src/main/java",
  "dateLibrary": "joda"
}